Week 2b - Statistics for Bioengineering – BioEngineering Statistics Spring 2025
…
group_by

dplyr::group_by is really useful as an intermediate step to getting at summary statistics which take into account grouping by a character or factor variable. For instance, if we wanted to calculate the mean life expectancy (lifeExp) for every country in the gapminder data (dat), we would first have to group by country.

datG <- dplyr::group_by(dat, country)

This is a bit like a non-function, since dat and datG are essentially the same….but they are not for the purposes of computing group-wise statistics. This is done using the dplyr::summarise function.

summarise

So if we wanted to calculate mean life expectancy (lifeExp) per country, we could use the grouped data.frame datG and the dplyr::summarise function to do so.

dplyr::summarise(datG, mnLife=mean(lifeExp))

# A tibble: 142 × 2
   country     mnLife
   <chr>        <dbl>
 1 Afghanistan   37.5
 2 Albania       68.4
 3 Algeria       59.0
 4 Angola        37.9
 5 Argentina     69.1
 6 Australia     74.7
 7 Austria       73.1
 8 Bahrain       65.6
 9 Bangladesh    49.8
10 Belgium       73.6
# ℹ 132 more rows
…
